id;medi_nomb;medi_desc
1;scalable;Small
2;deliverables reinvent 24 hour;overriding
3;monitor 1080p Checking Account;world-class Frozen IB
4;Highway Ergonomic;moratorium moratorium
5;New York tangible Mississippi;Frozen bus
6;hard drive Robust Networked;Poland
7;Small partnerships;Outdoors
8;Harbor Montana;Corporate Phased relationships
9;white Brand Money Market Account;Salad Web virtual
10;Refined Squares;maroon
