{
    "name": "Marca",
    "fields": [
        {
            "fieldName": "marcNomb",
            "fieldType": "String"
        },
        {
            "fieldName": "marcDesc",
            "fieldType": "String"
        }
    ],
    "relationships": [
        {
            "relationshipType": "one-to-many",
            "otherEntityName": "producto",
            "otherEntityRelationshipName": "marca",
            "relationshipName": "prodMarc"
        }
    ],
    "changelogDate": "20190911235527",
    "entityTableName": "marca",
    "dto": "no",
    "pagination": "pagination",
    "service": "no",
    "jpaMetamodelFiltering": false,
    "fluentMethods": true,
    "clientRootFolder": "",
    "applications": "*"
}